slides
…
Tabulating linked-data with SPARQL

music_genres_query <- "
PREFIX : <http://dbpedia.org/ontology/>

SELECT * WHERE {
  ?uri a :MusicGenre;
    rdfs:label ?label;
    rdfs:comment ?comment
    .
} LIMIT 100
"
(music_genre_results <- query(music_genres_query, endpoint="http://dbpedia.org/sparql/"))

# A tibble: 100 × 3
   uri                                            label              comment    
   <chr>                                          <chr>              <chr>      
 1 http://dbpedia.org/resource/Art_rock           Art rock           "Art rock …
 2 http://dbpedia.org/resource/Bebop              Bebop              "Bebop or …
 3 http://dbpedia.org/resource/Britpop            Britpop            "Britpop w…
 4 http://dbpedia.org/resource/Bubblegum_pop      Bubblegum pop      "Bubblegum…
 5 http://dbpedia.org/resource/Fighting_game      Fighting game      "A fightin…
 6 http://dbpedia.org/resource/Free_improvisation Free improvisation "Free impr…
 7 http://dbpedia.org/resource/Greek_hip_hop      Greek hip hop      "Greek hip…
 8 http://dbpedia.org/resource/Grunge             Grunge             "Grunge (s…
 9 http://dbpedia.org/resource/Historical_fiction Historical fiction "Historica…
10 http://dbpedia.org/resource/Morality_play      Morality play      "The moral…
# … with 90 more rows
…
We can use this table to create LDF resources and then reach into the description while grepping the genres to match against the comment - helping us find dance music genres.

You’ll need a fair bit of domain knowledge to write SPARQL queries - both in terms of SPARQL itself as well as the vocabularies used in the data. The LDF package seeks to take care of this problem by writing queries for you.

ldf::get_cube

get_cube("http://gss-data.org.uk/data/gss_data/climate-change/beis-2005-to-2019-local-authority-carbon-dioxide-co2-emissions#dataset",
         endpoint="https://beta.gss-data.org.uk/sparql")

# A tibble: 129,388 × 5
   year       area       sector                         territorial_emissions
   <ldf_ntrv> <ldf_rsrc> <ldf_rsrc>                                     <dbl>
 1 2005       Hartlepool Commercial Electricity                         77.2 
 2 2005       Hartlepool Commercial Gas                                 16.7 
 3 2005       Hartlepool Commercial 'Other Fuels'                        0.2 
 4 2005       Hartlepool Domestic Electricity                           80.6 
 5 2005       Hartlepool Domestic Gas                                  131.  
 6 2005       Hartlepool Domestic 'Other Fuels'                          4.07
 7 2005       Hartlepool Industry Electricity                          101.  
 8 2005       Hartlepool Industry Gas                                   33.2 
 9 2005       Hartlepool Large Industrial Installations                181.  
10 2005       Hartlepool Industry 'Other Fuels'                         20.4 
# … with 129,378 more rows, and 1 more variable: unit_of_measure <ldf_rsrc>
…
LDF provides a set of functions for assembling linked-data frames from datasets published according to the RDF Data Cube standard. This is mostly captured under the top-level porcelain get_cube which builds on top of plumbing to orchestrate a set of SPARQL queries.

These queries first download a tidy table of URIs for the observations and then, for each column, descriptions are downloaded for all the reference data. The results are assembled into a linked data frame.

Hidden behind each of these ldf_resource column types is one of the related tables from the star schema we saw at the beginning.

# English Local Authority areas with the highest emissions from transport
(transport_emissions <- emissions %>% 
    filter(sector %>% property("parent") %>% label() == "Transport") %>%
    group_by(area) %>% 
    summarise(total_emissions=sum(territorial_emissions)) %>% 
    arrange(-total_emissions))

# A tibble: 379 × 2
   area                      total_emissions
   <ldf_rsrc>                          <dbl>
 1 Leeds                              25831.
 2 Birmingham                         22273.
 3 Buckinghamshire                    21006.
 4 Wiltshire                          19024.
 5 Cheshire East                      17929.
 6 Cornwall                           15703.
 7 Cheshire West and Chester          14393.
 8 County Durham                      14210.
 9 South Gloucestershire              14013.
10 Doncaster                          13778.
# … with 369 more rows
…
